Introduction to JACUSA2helper • JACUSA2helper
…
In summary, all structured/nested columns hold: * data of a condition “condI” on the first level, and * data of a replicate “repJ” on the second level.

Coverage information for condition 2 and replicate 1 can be accessed with:

str(rdd$cov$cond2$rep1)
#>  num [1:94] 10 3 4 6 9 7 6 5 3 3 ...

Wrapper for lapply() and mapply()

For accessing and manipulating structured columns there are JACUSA2 specific wrappers for lapply() and mapply(): * lapply_cond(x, f) operates on condition data (list of replicate data), * lapply_repl(x, f) operates on replicate data of each condition, and * mapply_repl(f, ...) operates on replicate data, takes multiple inputs.

To get the total coverage for each condition use:

lapply_cond(rdd$cov, rowSums)
#> # A tibble: 94 × 2
#>   cond1 cond2
#>   <dbl> <dbl>
#> 1     5    15
#> 2    16     6
#> 3    36     7
#> 4     9     9
#> # … with 90 more rows

The following gives you the observed base calls:

base_calls <- lapply_repl(rdd$bases, base_call)
base_calls$cond2
#> # A tibble: 94 × 2
#>   rep1  rep2 
#>   <chr> <chr>
#> 1 AG    A    
#> 2 G     AG   
#> 3 AG    G    
#> 4 CT    C    
#> # … with 90 more rows
…
