Introduction to meta conditions with JACUSA2helper • JACUSA2helper
…
results %>% ... other functions()

results %>% dplyr:group_by(results, meta_cond) %>% ... other functions()

The first statement will apply any subsequent functions to ALL sites regardless of the meta condition while the last statement will apply to sites of EACH meta condition!

Number of sites

The following statement will determine the number of covered sites per contig and meta condition:

dplyr::distinct(Zhou2018_rt_arrest, contig, start, end, strand, meta_cond) %>% 
  dplyr::group_by(contig, meta_cond) %>% 
  dplyr::count()
#> # A tibble: 9 × 3
#> # Groups:   contig, meta_cond [9]
#>   contig meta_cond     n
#>   <chr>  <fct>     <int>
#> 1 18S    HIVRT      3571
#> 2 18S    SIIIRTMg   1867
#> 3 18S    SIIIRTMn   1892
#> 4 28S    HIVRT      8291
#> # … with 5 more rows
…
Filter

Filter by coverage regardless of the meta condition.

filtered_all <- Zhou2018_rt_arrest %>%
  dplyr::filter(All(cov$cond1 >= 100) & All(cov$cond2 >= 1000)) %>% 
  dplyr::group_by(contig, meta_cond) %>% 
  dplyr::count() # count in a group
filtered_all
#> # A tibble: 9 × 3
#> # Groups:   contig, meta_cond [9]
#>   contig meta_cond     n
#>   <chr>  <fct>     <int>
#> 1 18S    HIVRT      1868
#> 2 18S    SIIIRTMg   1865
#> 3 18S    SIIIRTMn   1868
#> 4 28S    HIVRT      4675
#> # … with 5 more rows
…
