Introduction to JACUSA2helper • JACUSA2helper
…
Wrapper for lapply() and mapply()

For accessing and manipulating structured columns there are JACUSA2
specific wrappers for lapply() and mapply(): *
lapply_cond(x, f) operates on condition data (list of
replicate data), * lapply_repl(x, f) operates on replicate
data of each condition, and * mapply_repl(f, ...) operates
on replicate data, takes multiple inputs.

To get the total coverage for each condition use:

lapply_cond(rdd$cov, rowSums)
#> # A tibble: 10,018 × 2
#>   cond1 cond2
#>   <dbl> <dbl>
#> 1     5    15
#> 2     8    11
#> 3     2    10
#> 4     2    30
#> # … with 10,014 more rows

The following gives you the observed base calls:

base_calls <- lapply_repl(rdd$bases, base_call)
base_calls$cond2
#> # A tibble: 10,018 × 2
#>   rep1  rep2 
#>   <chr> <chr>
#> 1 AG    A    
#> 2 T     T    
#> 3 A     A    
#> 4 AG    AG   
#> # … with 10,014 more rows
…
